"lakeid";"lakename"
1;"Barren River Lake"
2;"Buckhorn Lake"
3;"Cave Run Lake"
4;"Dale Hollow Lake"
5;"Dewey Lake"
6;"Fishtrap Lake"
7;"Grayson Lake"
8;"Green River Lake"
9;"Herrington Lake"
10;"Kentucky Lake"
11;"Lake Barkley"
12;"Lake Cumberland"
13;"Laurel River Lake"
14;"Nolin Lake"
15;"Paintsville Lake"
16;"Rough River Lake"
17;"Taylorsville Lake"
